…
``` r
flights %>% filter(is.na(dep_time))
```

    ## # A tibble: 8,255 × 19
    ##     year month   day dep_time sched_dep_time dep_delay arr_time sched_arr_time
    ##    <int> <int> <int>    <int>          <int>     <dbl>    <int>          <int>
    ##  1  2013     1     1       NA           1630        NA       NA           1815
    ##  2  2013     1     1       NA           1935        NA       NA           2240
    ##  3  2013     1     1       NA           1500        NA       NA           1825
    ##  4  2013     1     1       NA            600        NA       NA            901
    ##  5  2013     1     2       NA           1540        NA       NA           1747
    ##  6  2013     1     2       NA           1620        NA       NA           1746
    ##  7  2013     1     2       NA           1355        NA       NA           1459
    ##  8  2013     1     2       NA           1420        NA       NA           1644
    ##  9  2013     1     2       NA           1321        NA       NA           1536
    ## 10  2013     1     2       NA           1545        NA       NA           1910
    ## # … with 8,245 more rows, and 11 more variables: arr_delay <dbl>,
    ## #   carrier <chr>, flight <int>, tailnum <chr>, origin <chr>, dest <chr>,
    ## #   air_time <dbl>, distance <dbl>, hour <dbl>, minute <dbl>, time_hour <dttm>

1.  There are 8255 flights with a missing dep\_time. The arrival time,
    departure delay, arrival delay, tail number, arrival delay, and
    air\_time are also missing. These rows could represent cancelled
    flights.

2.  

``` r
flights <- flights %>% mutate(dep_time_since_midnight=(dep_time%/%100) * 60 + (dep_time%% 100),
                                                       sched_dep_time_since_midnight=(sched_dep_time%/%100) * 60 + (sched_dep_time%% 100))
flights %>% select(dep_time, dep_time_since_midnight, sched_dep_time, sched_dep_time_since_midnight)
```

    ## # A tibble: 336,776 × 4
    ##    dep_time dep_time_since_midnight sched_dep_time sched_dep_time_since_midnight
    ##       <int>                   <dbl>          <int>                         <dbl>
    ##  1      517                     317            515                           315
    ##  2      533                     333            529                           329
    ##  3      542                     342            540                           340
    ##  4      544                     344            545                           345
    ##  5      554                     354            600                           360
    ##  6      554                     354            558                           358
    ##  7      555                     355            600                           360
    ##  8      557                     357            600                           360
    ##  9      557                     357            600                           360
    ## 10      558                     358            600                           360
    ## # … with 336,766 more rows
…
